…
First, we should use `groupby` to group our data into the categories that we want to plot.

```R
rep135_TCR_clones %>%
  group_by(immgen_singler_main)
```

```
# A tibble: 23,185 × 2
# Groups:   immgen_singler_main [18]
   CTaa_TCR                       immgen_singler_main
   <chr>                          <chr>              
 1 CALGAVSAGNKLTF_CASRGGAYAEQFF   NKT                
 2 NA                             B cells            
 3 NA                             Fibroblasts        
 4 NA                             NK cells           
 5 CATDGGTGSNRLTF_CASSYGQGDSDYTF  T cells            
 6 NA                             Fibroblasts        
 7 CAARLGMSNYNVLYF_CASSQTGGDERLFF T cells            
 8 NA                             Neutrophils        
 9 NA                             Fibroblasts        
10 CALGAVSAGNKLTF_CASRGGAYAEQFF   NKT                
# ℹ 23,175 more rows
# ℹ Use `print(n = ...)` to see more rows
```
…
```R
table(rep135@meta.data$immgen_singler_main)
```

Unfortunately, those are the same numbers as our summary dataframe above. We want to be counting how many TCRs are seen per cell type not how many of each cell type we have. **What do you think could be the problem?**
```
          B cells      B cells, pro         Basophils                DC Endothelial cells  Epithelial cells       Fibroblasts               ILC       Macrophages 
             3253                 3                37               295                71              1238               589               763               459 
       Mast cells         Monocytes       Neutrophils          NK cells               NKT        Stem cells     Stromal cells           T cells               Tgd 
               11               633                92               565              2249                 2                18             12714               193 
```


```
# A tibble: 23,185 × 2
# Groups:   immgen_singler_main [18]
   CTaa_TCR                       immgen_singler_main
   <chr>                          <chr>              
 1 CALGAVSAGNKLTF_CASRGGAYAEQFF   NKT                
 2 NA                             B cells            
 3 NA                             Fibroblasts        
 4 NA                             NK cells           
 5 CATDGGTGSNRLTF_CASSYGQGDSDYTF  T cells            
 6 NA                             Fibroblasts        
 7 CAARLGMSNYNVLYF_CASSQTGGDERLFF T cells            
 8 NA                             Neutrophils        
 9 NA                             Fibroblasts        
10 CALGAVSAGNKLTF_CASRGGAYAEQFF   NKT                
# ℹ 23,175 more rows
# ℹ Use `print(n = ...)` to see more rows
```

It seems that those pesky NAs are being counted during our summarise command which we don't want. If a cell has no TCR it should not be counted. Throwing in a `na.omit()` should do the trick!

```R
rep135_TCR_clones %>%
    group_by(immgen_singler_main) %>% na.omit() 
```

```
# A tibble: 12,597 × 2
# Groups:   immgen_singler_main [15]
   CTaa_TCR                                  immgen_singler_main
   <chr>                                     <chr>              
 1 CALGAVSAGNKLTF_CASRGGAYAEQFF              NKT                
 2 CATDGGTGSNRLTF_CASSYGQGDSDYTF             T cells            
 3 CAARLGMSNYNVLYF_CASSQTGGDERLFF            T cells            
 4 CALGAVSAGNKLTF_CASRGGAYAEQFF              NKT                
 5 CAARLGMSNYNVLYF_CASSQTGGDERLFF            DC                 
 6 CAMREGSNNRIFF;CALSGANNNNAPRF_CASSYRGFDYTF T cells            
 7 CAAHSNYQLIW_CASSPGTGGYEQYF                NKT                
 8 CAVKNNRIFF_CASGDARGVEQYF                  ILC                
 9 CAASEGGNYKPTF_CASSRDRYAEQFF               NKT                
10 CARTNTGYQNFYF_CASSPHNSPLYF                Monocytes          
# ℹ 12,587 more rows
# ℹ Use `print(n = ...)` to see more rows
```
…
